%YAML 1.1
%TAG !u! tag:unity3d.com,2011:
--- !u!1045 &1
EditorBuildSettings:
  m_ObjectHideFlags: 0
  serializedVersion: 2
  m_Scenes:
  - enabled: 1
    path: Assets/Scenes/SceneMenu.unity
    guid: d4ce0dc2bfbf5cb4f9acf2778ee77ff7
  - enabled: 1
    path: Assets/Scenes/SceneGame.unity
    guid: 53a14e6cdfad1914695c267f30133be4
  m_configObjects:
    com.unity.adaptiveperformance.loader_settings: {fileID: 11400000, guid: 5a2a2e5ce83fde9448028b3f9be0b9cd,
      type: 2}
    com.unity.adaptiveperformance.simulator.provider_settings: {fileID: 11400000,
      guid: 0b4f818fca914674aa1307924358c665, type: 2}
